{
    "nome": "Santa Maria in Betlem (Borgo)",
    "feriali": [
        "8:30"
    ],
    "prefestive": [
        "18:00"
    ],
    "festive": [
        "8:30",
        "11:00",
        "18:00"
    ],
    "max": 90,
    "semaforo": 0
}

