{
    "nome": "Santi Gervasio e Protasio",
    "feriali": [
        "8:30",
        "17:30"
    ],
    "prefestive": [
        "17:30"
    ],
    "festive": [
        "8:00",
        "11:00",
        "17:30",
        "20:30"
    ],
    "max": 70,
    "semaforo": 0
}

