{
    "nome": "San Teodoro",
    "feriali": [
        "17:00",
        "19:00"
    ],
    "prefestive": [
        "17:00"
    ],
    "festive": [
        "11:00",
        "18:00"
    ],
    "max": 100,
    "semaforo": 0,
    "hash": "$2y$10$7nT/HtX5aLK.ERFfs4zNCeD5pnU3bAnP.NtzM.Mkg1c4ZFJwLAY96"
}

